import useful;
import geometry;
import geometry_quadrilateral;
import graph;
size(10cm);

quadrilateral p = parallelogram(pi/3, 0.5);
unravel p;
draw(p);
segment s1 = segment(A, C);
segment s2 = segment(B, D);
draw(s1, marker = StickIntervalMarker(n = 2));
draw(s2, marker = StickIntervalMarker(n = 1));
defpoint("O", intersectionpoint(s1, s2), S + 2E);
defpoint("P", (4B + A)/5, W);
defpoint("T", intersectionpoint(line(C, D), line(P, O)), 2E);
draw(P -- T);
markangle(B, O, P);
markangle(D, O, T);
markangle(C, D, B, n = 2);
markangle(P, B, O, n = 2);
