import useful;
import geometry;
import graph;
size(10cm);

real alpha = 50;
triangle tr = triangleAbc(alpha, 30, 60);
tr = rotate(-25) * tr;
draw(tr);
deftriangle("ACB", tr);
circle c = circumcircle(tr);
defpoint("O", c.C, NE);
draw(A -- O);
line p1 = perpendicular(B, line(A, O));
defpoint("D", intersectionpoint(line(A, C), p1), N + NW);
defpoint("H", intersectionpoint(line(A, O), p1), 2S + 0.1E);
draw(B -- H);
markrightangle(B, H, O);
defpoint("E", intersectionpoints(c, p1)[0], W);
draw(B -- E -- A -- cycle);
draw(O -- B);
markangle("$\psi$", B, E, A, n = 1);
markangle("$\psi$", A, B, E, n = 1);
draw(arc(c.C, C, E), dashed);
draw(E -- O);
draw(segment(O, B), marker = StickIntervalMarker(n = 2, i = 1));
draw(segment(O, E), marker = StickIntervalMarker(n = 2, i = 1));
draw(segment(O, H), marker = TildeIntervalMarker(n = 1, i = 1));
