import useful;
import geometry;
import geometry_quadrilateral;
import graph;
size(10cm);

deftriangle("OBC", triangle(pi/3, pi/4));
line l =  line(O, O + rotate(15) * (C - B));
real alpha = degrees(angle(line(B, C), line(B, O)));
line l2 = line(B, B + rotate(alpha) * (O - B));
real beta = degrees(angle(line(C, B), line(C, O)));
line l3 = line(C, C + rotate(beta) * (O - C));
defpoint("A", intersectionpoint(l, l2), W);
defpoint("D", intersectionpoint(l, l3), N);
draw(A -- B -- C -- D -- cycle);
markangle("$\alpha$", O, B, A);
markangle("$\alpha$", C, B, O);
markangle("$\beta$", O, C, B, n = 2);
markangle("$\beta$", D, C, O, n = 2);
defaltitude("P", triangle(A, O, B).vertex(2));
defaltitude("Q", triangle(B, O, C).vertex(2));
defaltitude("R", triangle(C, O, D).vertex(2));
